<svg width="312" height="74" viewBox="0 0 312 74" fill="none" xmlns="http://www.w3.org/2000/svg">
<g filter="url(#filter0_d)">
<rect x="7.4312" width="65.3945" height="65.3945" rx="30" fill="#005F89"/>
</g>
<rect y="28.2385" width="81" height="9.66055" fill="#63CDD7"/>
<g filter="url(#filter1_d)">
<circle cx="40.5" cy="33.0688" r="11.5183" fill="#E6ECEB"/>
</g>
<path d="M134.734 16.5703H124.281V45H117.25V16.5703H106.938V10.875H134.734V16.5703ZM155.219 37.9688H142.891L140.547 45H133.07L145.773 10.875H152.289L165.062 45H157.586L155.219 37.9688ZM144.789 32.2734H153.32L149.031 19.5L144.789 32.2734ZM191.125 16.5703H180.672V45H173.641V16.5703H163.328V10.875H191.125V16.5703ZM211.609 37.9688H199.281L196.938 45H189.461L202.164 10.875H208.68L221.453 45H213.977L211.609 37.9688ZM201.18 32.2734H209.711L205.422 19.5L201.18 32.2734ZM235.328 31.3125L231.672 35.25V45H224.641V10.875H231.672V26.3438L234.766 22.1016L243.461 10.875H252.109L239.992 26.0391L252.461 45H244.094L235.328 31.3125ZM274.375 37.9688H262.047L259.703 45H252.227L264.93 10.875H271.445L284.219 45H276.742L274.375 37.9688ZM263.945 32.2734H272.477L268.188 19.5L263.945 32.2734ZM307.938 30.2109H294.438V39.3516H310.281V45H287.406V10.875H310.234V16.5703H294.438V24.7031H307.938V30.2109ZM112.508 58.9492H108.912L108.229 61H106.048L109.753 51.0469H111.653L115.379 61H113.198L112.508 58.9492ZM109.466 57.2881H111.954L110.703 53.5625L109.466 57.2881ZM122.509 57.3701C122.509 58.5094 122.249 59.4232 121.729 60.1113C121.215 60.7949 120.517 61.1367 119.638 61.1367C118.89 61.1367 118.286 60.877 117.826 60.3574V63.8438H115.851V53.6035H117.683L117.751 54.3281C118.229 53.7539 118.854 53.4668 119.624 53.4668C120.535 53.4668 121.244 53.804 121.75 54.4785C122.256 55.153 122.509 56.0827 122.509 57.2676V57.3701ZM120.533 57.2266C120.533 56.5384 120.41 56.0075 120.164 55.6338C119.923 55.2601 119.569 55.0732 119.104 55.0732C118.485 55.0732 118.059 55.3102 117.826 55.7842V58.8125C118.068 59.3001 118.498 59.5439 119.118 59.5439C120.062 59.5439 120.533 58.7715 120.533 57.2266ZM130.397 57.3701C130.397 58.5094 130.138 59.4232 129.618 60.1113C129.103 60.7949 128.406 61.1367 127.526 61.1367C126.779 61.1367 126.175 60.877 125.715 60.3574V63.8438H123.739V53.6035H125.571L125.64 54.3281C126.118 53.7539 126.743 53.4668 127.513 53.4668C128.424 53.4668 129.133 53.804 129.639 54.4785C130.145 55.153 130.397 56.0827 130.397 57.2676V57.3701ZM128.422 57.2266C128.422 56.5384 128.299 56.0075 128.053 55.6338C127.811 55.2601 127.458 55.0732 126.993 55.0732C126.373 55.0732 125.947 55.3102 125.715 55.7842V58.8125C125.956 59.3001 126.387 59.5439 127.007 59.5439C127.95 59.5439 128.422 58.7715 128.422 57.2266Z" fill="#005F89"/>
<defs>
<filter id="filter0_d" x="3.4312" y="0" width="73.3945" height="73.3945" filterUnits="userSpaceOnUse" color-interpolation-filters="sRGB">
<feFlood flood-opacity="0" result="BackgroundImageFix"/>
<feColorMatrix in="SourceAlpha" type="matrix" values="0 0 0 0 0 0 0 0 0 0 0 0 0 0 0 0 0 0 127 0"/>
<feOffset dy="4"/>
<feGaussianBlur stdDeviation="2"/>
<feColorMatrix type="matrix" values="0 0 0 0 0 0 0 0 0 0 0 0 0 0 0 0 0 0 0.25 0"/>
<feBlend mode="normal" in2="BackgroundImageFix" result="effect1_dropShadow"/>
<feBlend mode="normal" in="SourceGraphic" in2="effect1_dropShadow" result="shape"/>
</filter>
<filter id="filter1_d" x="24.9817" y="21.5504" width="31.0367" height="31.0367" filterUnits="userSpaceOnUse" color-interpolation-filters="sRGB">
<feFlood flood-opacity="0" result="BackgroundImageFix"/>
<feColorMatrix in="SourceAlpha" type="matrix" values="0 0 0 0 0 0 0 0 0 0 0 0 0 0 0 0 0 0 127 0"/>
<feOffset dy="4"/>
<feGaussianBlur stdDeviation="2"/>
<feColorMatrix type="matrix" values="0 0 0 0 0 0 0 0 0 0 0 0 0 0 0 0 0 0 0.25 0"/>
<feBlend mode="normal" in2="BackgroundImageFix" result="effect1_dropShadow"/>
<feBlend mode="normal" in="SourceGraphic" in2="effect1_dropShadow" result="shape"/>
</filter>
</defs>
</svg>
